simulation/qsim/MyProject.msim.vcd
$comment
	File created using the following command:
		vcd file MyProject.msim.vcd -direction
$end
$date
	Thu Aug 26 20:30:54 2021
$end
$version
	ModelSim Version 10.1d
$end
$timescale
	1ps
$end
$scope module dividebyFSM_vlg_vec_tst $end
$var reg 1 ! clk $end
$var reg 1 " reset $end
$var wire 1 # y $end
$var wire 1 $ sampler $end
$scope module i1 $end
$var wire 1 % gnd $end
$var wire 1 & vcc $end
$var wire 1 ' unknown $end
$var tri1 1 ( devclrn $end
$var tri1 1 ) devpor $end
$var tri1 1 * devoe $end
$var wire 1 + y~output_o $end
$var wire 1 , clk~input_o $end
$var wire 1 - clk~inputclkctrl_outclk $end
$var wire 1 . state.S1~0_combout $end
$var wire 1 / reset~input_o $end
$var wire 1 0 reset~inputclkctrl_outclk $end
$var wire 1 1 state.S1~q $end
$var wire 1 2 state.S2~feeder_combout $end
$var wire 1 3 state.S2~q $end
$var wire 1 4 state.S0~0_combout $end
$var wire 1 5 state.S0~q $end
$upscope $end
$upscope $end
$enddefinitions $end
#0
$dumpvars
0!
0"
1#
x$
0%
1&
x'
1(
1)
1*
1+
0,
0-
1.
0/
00
01
02
03
14
05
$end
#100000
1!
1,
1-
0$
15
11
0.
12
0+
0#
#200000
0!
0,
0-
1$
#300000
1!
1,
1-
0$
13
01
04
02
#400000
0!
0,
0-
1$
#500000
1!
1,
1-
0$
05
03
1.
14
1+
1#
#600000
0!
0,
0-
1$
#700000
1!
1,
1-
0$
15
11
0.
12
0+
0#
#800000
0!
0,
0-
1$
#900000
1!
1,
1-
0$
13
01
04
02
#1000000
0!
0,
0-
1$
#1100000
1!
1,
1-
0$
05
03
1.
14
1+
1#
#1200000
0!
0,
0-
1$
#1300000
1!
1,
1-
0$
15
11
0.
12
0+
0#
#1400000
0!
0,
0-
1$
#1500000
1!
1,
1-
0$
13
01
04
02
#1600000
0!
0,
0-
1$
#1700000
1!
1,
1-
0$
05
03
1.
14
1+
1#
#1800000
0!
0,
0-
1$
#1900000
1!
1,
1-
0$
15
11
0.
12
0+
0#
#2000000
0!
0,
0-
1$
#2100000
1!
1,
1-
0$
13
01
04
02
#2200000
0!
0,
0-
1$
#2300000
1!
1,
1-
0$
05
03
1.
14
1+
1#
#2400000
0!
0,
0-
1$
#2500000
1!
1,
1-
0$
15
11
0.
12
0+
0#
#2600000
0!
0,
0-
1$
#2700000
1!
1,
1-
0$
13
01
04
02
#2800000
0!
0,
0-
1$
#2900000
1!
1,
1-
0$
05
03
1.
14
1+
1#
#3000000
0!
0,
0-
1$
#3100000
1!
1,
1-
0$
15
11
0.
12
0+
0#
#3200000
0!
0,
0-
1$
#3300000
1!
1,
1-
0$
13
01
04
02
#3400000
0!
0,
0-
1$
#3500000
1!
1,
1-
0$
05
03
1.
14
1+
1#
#3600000
0!
0,
0-
1$
#3700000
1!
1,
1-
0$
15
11
0.
12
0+
0#
#3800000
0!
0,
0-
1$
#3900000
1!
1,
1-
0$
13
01
04
02
#4000000
0!
0,
0-
1$
#4100000
1!
1,
1-
0$
05
03
1.
14
1+
1#
#4200000
0!
0,
0-
1$
#4300000
1!
1,
1-
0$
15
11
0.
12
0+
0#
#4400000
0!
0,
0-
1$
#4500000
1!
1,
1-
0$
13
01
04
02
#4600000
0!
0,
0-
1$
#4700000
1!
1,
1-
0$
05
03
1.
14
1+
1#
#4800000
0!
0,
0-
1$
#4900000
1!
1,
1-
0$
15
11
0.
12
0+
0#
#5000000
0!
0,
0-
1$
#5100000
1!
1,
1-
0$
13
01
04
02
#5200000
0!
0,
0-
1$
#5300000
1!
1,
1-
0$
05
03
1.
14
1+
1#
#5400000
0!
0,
0-
1$
#5500000
1!
1,
1-
0$
15
11
0.
12
0+
0#
#5600000
0!
0,
0-
1$
#5700000
1!
1,
1-
0$
13
01
04
02
#5800000
0!
0,
0-
1$
#5900000
1!
1,
1-
0$
05
03
1.
14
1+
1#
#6000000
0!
0,
0-
1$
#6100000
1!
1,
1-
0$
15
11
0.
12
0+
0#
#6200000
0!
0,
0-
1$
#6300000
1!
1,
1-
0$
13
01
04
02
#6400000
0!
0,
0-
1$
#6500000
1!
1,
1-
0$
05
03
1.
14
1+
1#
#6600000
0!
0,
0-
1$
#6700000
1!
1,
1-
0$
15
11
0.
12
0+
0#
#6800000
0!
0,
0-
1$
#6900000
1!
1,
1-
0$
13
01
04
02
#7000000
0!
0,
0-
1$
#7100000
1!
1,
1-
0$
05
03
1.
14
1+
1#
#7200000
0!
0,
0-
1$
#7300000
1!
1,
1-
0$
15
11
0.
12
0+
0#
#7400000
0!
0,
0-
1$
#7500000
1!
1,
1-
0$
13
01
04
02
#7600000
0!
0,
0-
1$
#7700000
1!
1,
1-
0$
05
03
1.
14
1+
1#
#7800000
0!
0,
0-
1$
#7900000
1!
1,
1-
0$
15
11
0.
12
0+
0#
#8000000
0!
0,
0-
1$
#8100000
1!
1,
1-
0$
13
01
04
02
#8200000
0!
0,
0-
1$
#8300000
1!
1,
1-
0$
05
03
1.
14
1+
1#
#8400000
0!
0,
0-
1$
#8500000
1!
1,
1-
0$
15
11
0.
12
0+
0#
#8600000
0!
0,
0-
1$
#8700000
1!
1,
1-
0$
13
01
04
02
#8800000
0!
0,
0-
1$
#8900000
1!
1,
1-
0$
05
03
1.
14
1+
1#
#9000000
0!
0,
0-
1$
#9100000
1!
1,
1-
0$
15
11
0.
12
0+
0#
#9200000
0!
0,
0-
1$
#9300000
1!
1,
1-
0$
13
01
04
02
#9400000
0!
0,
0-
1$
#9500000
1!
1,
1-
0$
05
03
1.
14
1+
1#
#9600000
0!
0,
0-
1$
#9700000
1!
1,
1-
0$
15
11
0.
12
0+
0#
#9800000
0!
0,
0-
1$
#9900000
1!
1,
1-
0$
13
01
04
02
